<?xml version="1.0" encoding="utf-8"?>
<!-- Generator: Adobe Illustrator 18.1.0, SVG Export Plug-In . SVG Version: 6.00 Build 0)  -->
<svg version="1.1" id="Layer_1" xmlns="http://www.w3.org/2000/svg" xmlns:xlink="http://www.w3.org/1999/xlink" x="0px" y="0px"
	 viewBox="41.6 164.9 512 512" enable-background="new 41.6 164.9 512 512" xml:space="preserve">
<path fill="#FFFFFF" d="M330.8,529.2V225.8c0-19.8-14.7-36-33-36s-33,16.1-33,36v303.5c-19.5,11.5-33,32.5-33,56.9
	c0,36.4,29.7,66,66,66s66-29.7,66-66C363.9,561.8,350.6,540.6,330.8,529.2z"/>
</svg>
